%YAML 1.1
%TAG !u! tag:unity3d.com,2011:
--- !u!78 &1
TagManager:
  serializedVersion: 2
  tags:
  - Start
  - Reduce Speed
  - Start Move
  - Environment
  - Endothelial
  - Selectin
  - Mono6
  - Stop Trigger
  - Mac
  - Enemy
  - Bacteria
  - S A Mutant
  - DNA Chain L
  - DNA Chain R
  - Left Controller
  - Capsule Storage
  - Bacteria State 2
  - Bacteria State 4
  - Bacteria State 3
  - Bacteria State 5
  - Particle Weapon
  - NETS Weapon
  - Ingest Weapon
  - Captured Bacteria
  - S A Mutant Pieces
  - OVRRig
  - Simulation Bacteria
  - Bacteria State 1
  - DNA Chain Collider
  - MONO6
  - Red Blood Cell
  - Cytotoxic T Cell
  - Platelet
  - Neutrophil
  - Macrophage
  - Helper T Cell
  - Plasma B Cell
  - MONO6 Transmigration
  - MONO6 Rolling Trigger
  - Play Particle Trails
  - Degranulation Trigger
  - Phagocytosis Trigger
  - NETS Unlock Trigger
  - NETS Sim Trigger
  - Waypoint 13
  - Highlightable
  - Selectin_reduce speed
  - Dead Neutrophils Trigger
  - Seeing Mutant Trigger
  - PHIL Path End
  - Shell
  layers:
  - Default
  - TransparentFX
  - Ignore Raycast
  - 
  - Water
  - UI
  - 
  - 
  - Simulation
  - Credits
  - Wall
  - Obstacle
  - Shell
  - 
  - 
  - 
  - 
  - 
  - 
  - 
  - 
  - 
  - 
  - 
  - 
  - 
  - 
  - 
  - 
  - 
  - 
  - 
  m_SortingLayers:
  - name: Default
    uniqueID: 0
    locked: 0
